        -:    0:Source:F:/sathya/ut_workspace/Jenkin_module/TST/AdcHandlerStub.c
        -:    0:Graph:F:\sathya\ut_workspace\Jenkin_module\DBG\TST\gtst_M_ADC_hdlr.gcno
        -:    0:Data:F:\sathya\ut_workspace\Jenkin_module\DBG\TST\gtst_M_ADC_hdlr.gcda
        -:    0:Runs:1
        -:    0:Programs:1
        -:    1:/***********************************************************************************************************************
        -:    2:Start
        -:    3:***********************************************************************************************************************/
        -:    4:
        -:    5:/***********************************************************************************************************************
        -:    6:Includes
        -:    7:***********************************************************************************************************************/
        -:    8:
        -:    9:#include "AdcHandlerStub.h"
        -:   10:#include "M_ADC_hdlr.h"
        -:   11:#include "r_cg_adc.h"
        -:   12:#include "M_event_handler.h"
        -:   13:
        -:   14:
        -:   15:/***********************************************************************************************************************
        -:   16:Global variables and functions
        -:   17:***********************************************************************************************************************/
        -:   18:
        -:   19:/***********************************************************************************************************************
        -:   20:Extern variables
        -:   21:***********************************************************************************************************************/
        -:   22:
        -:   23:extern ADC_CH_ST ADC_ch_st[NO_OF_ADC_IN];
        -:   24:
        -:   25:/***********************************************************************************************************************
        -:   26:* Function Name: Adcsetter
        -:   27:* Description  : This function initializes RAW_ADC_buffer.
        -:   28:* Arguments    : None
        -:   29:* Return Value : None
        -:   30:***********************************************************************************************************************/
        -:   31:
       11:   32:void Adcsetter(void)
        -:   33:{
        -:   34:	uint8_t i;
       55:   35:	for (i = 0; i < NO_OF_ADC_IN; i++)
        -:   36:	{
       44:   37:		ADC_ch_st[i].RAW_ADC_buffer = 0;
        -:   38:	}
       11:   39:}
        -:   40:
        -:   41:/***********************************************************************************************************************
        -:   42:* Function Name: AdcSetterSpecific
        -:   43:* Description  : This function assign RAW_ADC_buffer.
        -:   44:* Arguments    : ch_no - Adc channel channel selection
        -:   45:				 raw - Value to be stored in RAW_ADC_buffer.
        -:   46:* Return Value : None
        -:   47:***********************************************************************************************************************/
        -:   48:
       33:   49:void AdcSetterSpecific(uint8_t ch_no, uint16_t raw)
        -:   50:{
       33:   51:	ADC_ch_st[ch_no].RAW_ADC_buffer = raw;
        -:   52:
       33:   53:}
        -:   54:
        -:   55:/***********************************************************************************************************************
        -:   56:* Function Name: R_ADC_Start
        -:   57:* Description  : This function starts AdcModule.
        -:   58:* Arguments    : None
        -:   59:* Return Value : None
        -:   60:***********************************************************************************************************************/
        -:   61:
      312:   62:void R_ADC_Start(void)
        -:   63:{
        -:   64:
      312:   65:}
        -:   66:
        -:   67:/***********************************************************************************************************************
        -:   68:* Function Name: R_ADC_Start
        -:   69:* Description  : This function notifies current event to the InteractingModule.
        -:   70:* Arguments    : flag_pos - event type
        -:   71:				 operation - event status
        -:   72:* Return Value : One value of enum G_CTL_CODES
        -:   73:***********************************************************************************************************************/
        -:   74:
      624:   75:G_CTL_CODES GSM_event_flag_manager(uint8_t flag_pos, uint8_t operation)
        -:   76:{
      624:   77:	return NILL;
        -:   78:}
        -:   79:
        -:   80:/***********************************************************************************************************************
        -:   81:* Function Name: divuw
        -:   82:* Description  : This function divides ADC_result by MAXINDEX.
        -:   83:* Arguments    : dividend - ADC_result
        -:   84:				 divisor - MAXINDEX
        -:   85:* Return Value : Division result
        -:   86:***********************************************************************************************************************/
        -:   87:
     1248:   88:uint16_t divuw(uint16_t dividend, uint8_t divisor)
        -:   89:{
        -:   90:	uint16_t quotient;
     1248:   91:	quotient = dividend / divisor;
     1248:   92:	return quotient;
        -:   93:}
        -:   94:
        -:   95:/***********************************************************************************************************************
        -:   96:End
        -:   97:***********************************************************************************************************************/
