        -:    0:Source:F:/sathya/ut_workspace/Jenkin_module/INC/M_mode_key_handler.c
        -:    0:Graph:F:\sathya\ut_workspace\Jenkin_module\DBG\TST\gtst_M_mode_key_handler.gcno
        -:    0:Data:F:\sathya\ut_workspace\Jenkin_module\DBG\TST\gtst_M_mode_key_handler.gcda
        -:    0:Runs:1
        -:    0:Programs:1
        -:    1:
        -:    2:/***********************************************************************************************************************
        -:    3:Includes
        -:    4:***********************************************************************************************************************/
        -:    5:#include "A_main_app_handler.h"
        -:    6:#include "M_mode_key_handler.h"
        -:    7:#include "M_ZONE_intr_hdlr.h"
        -:    8:#include "M_led_handler.h"
        -:    9:#include "M_eeprom_handler.h"
        -:   10:#include "A_UI_handler.h"
        -:   11:#include "M_led_handler.h" 
        -:   12:#include "H_GPIO_driver.h"
        -:   13:
        -:   14:/***********************************************************************************************************************
        -:   15:Macro definitions
        -:   16:***********************************************************************************************************************/
        -:   17://debounce time
        -:   18:#define MAX_KEY_DB_TIME 2
        -:   19:
        -:   20:#define NO_UPDATE 0
        -:   21:#define UPDATE 1
        -:   22:
        -:   23:
        -:   24:/***********************************************************************************************************************
        -:   25:Global variables and functions
        -:   26:***********************************************************************************************************************/
        -:   27:uint8_t u8_G_pres_state = DEFAULT_MODE;
        -:   28:uint8_t u8_G_prev_state=DEFAULT_MODE;
        -:   29:uint8_t u8_G_state_change = 0;
        -:   30:uint8_t u8_dbcnt = 0;
        -:   31:
        -:   32: 
        -:   33:SYS_MODE_E u8_G_sys_mode = DEFAULT_MODE;
        -:   34:SYS_MODE_E u8_G_prev_mode = DEFAULT_MODE;
        -:   35:
        -:   36:/***********************************************************************************************************************
        -:   37:* Function Name: MKEY_create
        -:   38:* Description  : This function initializes the mode key handler
        -:   39:* Arguments    : None
        -:   40:* Return Value : None
        -:   41:***********************************************************************************************************************/
       13:   42:void MKEY_create(void)
        -:   43:{
       13:   44:	u8_G_pres_state = DEFAULT_MODE;
       13:   45:	u8_G_prev_state = DEFAULT_MODE;
       13:   46:	u8_G_state_change = 0;
       13:   47:	u8_dbcnt = 0;
        -:   48:
        -:   49:    
       13:   50:    u8_G_sys_mode = DEFAULT_MODE;
       13:   51:	u8_G_prev_mode = DEFAULT_MODE;
       13:   52:}
        -:   53:
        -:   54:/***********************************************************************************************************************
        -:   55:* Function Name: m_vMKEY_monitor
        -:   56:* Description  : This function monitors the mode key and updates ther system mode.
        -:   57:* Arguments    : None
        -:   58:* Return Value : Returns changed mode otherwise DEFAULT_MODE
        -:   59:***********************************************************************************************************************/
       49:   60:SYS_MODE_E m_vMKEY_monitor(void)
        -:   61:{
       49:   62:	SYS_MODE_E ret = DEFAULT_MODE;	 
       49:   63:	u8_G_pres_state=GPIO_input_get(PIN_NAME_MKEY1);
       49:   64:	u8_G_pres_state=(u8_G_pres_state<<1)|GPIO_input_get(PIN_NAME_MKEY2);
       49:   65:	if(u8_G_prev_state!=u8_G_pres_state)
        -:   66:	{
       23:   67:		u8_G_prev_state=u8_G_pres_state;
       23:   68:		u8_dbcnt=0;
       23:   69:		u8_G_state_change=1;			
        -:   70:	}
       49:   71:	if(u8_G_state_change == 1)
        -:   72:	{
       49:   73:		u8_dbcnt++;
       49:   74:		if(u8_dbcnt > MAX_KEY_DB_TIME)
        -:   75:		{
       13:   76:			if(u8_G_pres_state-1 != u8_G_sys_mode)
        -:   77:			{
       10:   78:				u8_G_sys_mode=(SYS_MODE_E)(u8_G_pres_state-1);
        -:   79:			}				
       13:   80:			u8_G_state_change = 0;
       13:   81:			u8_dbcnt = 0;				 			
        -:   82:		}
        -:   83:	}
        -:   84:	 
       49:   85:	if(u8_G_prev_mode - u8_G_sys_mode)
        -:   86:	{		 
       20:   87:		u8_G_prev_mode = u8_G_sys_mode;
       20:   88:		ret = u8_G_sys_mode;
       20:   89:		if((u8_G_sys_mode == ARM_MODE)||( u8_G_sys_mode == PART_ARM_MODE))
        -:   90:		{
       13:   91:			m_u8LED_ctrl_led(LED_ARM,ON);			 
        -:   92:		}
        7:   93:		else if(u8_G_sys_mode == DISARM_MODE)
        -:   94:		{
        6:   95:			m_u8LED_ctrl_led(LED_ARM,OFF);			 
        -:   96:		}
       20:   97:		E2P_LOG_STORE();
        -:   98:	}
       49:   99:	return ret;
        -:  100:}
        -:  101:
        -:  102:/***********************************************************************************************************************
        -:  103:* Function Name: m_u8ModeHdlr_update
        -:  104:* Description  : stores the mode read from eeprom to global structure sys_data
        -:  105:* Arguments    : Eeprrom array
        -:  106:* Return Value : one value of enum G_RESP_CODE
        -:  107:***********************************************************************************************************************/
    #####:  108:G_RESP_CODE m_u8ModeHdlr_update(const uint8_t *dat) 
        -:  109:{
    #####:  110:	G_RESP_CODE ret = SUCCESS;
        -:  111:	 
    #####:  112:	sys_data.u8_G_system_mode = (SYS_MODE_E)(*(dat + CURRENT_SYS_MODE_START_INDEX));
    #####:  113:	return ret;
        -:  114:} 
        -:  115:
        -:  116:/***********************************************************************************************************************
        -:  117:* Function Name: m_u8MKEY_sts_get
        -:  118:* Description  : Returns the current system mode
        -:  119:* Arguments    : None
        -:  120:* Return Value : one value of enum SYS_MODE_E
        -:  121:***********************************************************************************************************************/
        -:  122:
       13:  123:SYS_MODE_E m_u8MKEY_sts_get(void)
        -:  124:{ 
       13:  125:	return u8_G_sys_mode;
        -:  126:}
        -:  127:
        -:  128:/***********************************************************************************************************************
        -:  129:* Function Name: m_u8MKEY_sts_set
        -:  130:* Description  : Updates the current system mode
        -:  131:* Arguments    : one value of enum SYS_MODE_E
        -:  132:* Return Value : None
        -:  133:***********************************************************************************************************************/
        -:  134:
       10:  135:void m_u8MKEY_sts_set(SYS_MODE_E mode)
        -:  136:{ 
       10:  137:	u8_G_sys_mode = mode;
       10:  138:}
        -:  139: 
