        -:    0:Source:F:/sathya/ut_workspace/Jenkin_module/TST/PowerHandlerStub.c
        -:    0:Graph:F:\sathya\ut_workspace\Jenkin_module\DBG\TST\gtst_M_power_handler.gcno
        -:    0:Data:F:\sathya\ut_workspace\Jenkin_module\DBG\TST\gtst_M_power_handler.gcda
        -:    0:Runs:1
        -:    0:Programs:1
        -:    1:/***********************************************************************************************************************
        -:    2:Start
        -:    3:***********************************************************************************************************************/
        -:    4:
        -:    5:/***********************************************************************************************************************
        -:    6:Includes
        -:    7:***********************************************************************************************************************/
        -:    8:
        -:    9:#include "PowerHandlerStub.h"
        -:   10:#include "M_SYS_NOTI_hdlr.h" 
        -:   11:#include "M_ADC_hdlr.h"
        -:   12:#include "A_main_app_handler.h"
        -:   13:
        -:   14:/***********************************************************************************************************************
        -:   15:Macro definitions
        -:   16:***********************************************************************************************************************/
        -:   17:
        -:   18:/***********************************************************************************************************************
        -:   19:Global variables and functions
        -:   20:**********************************************************************************************************************/
        -:   21:
        -:   22:uint16_t AC;
        -:   23:uint16_t BAT;
        -:   24:POW_MODE_T POWER, BATTERY;
        -:   25:
        -:   26:/***********************************************************************************************************************
        -:   27:Extern variables
        -:   28:***********************************************************************************************************************/
        -:   29:
        -:   30:
        -:   31:/***********************************************************************************************************************
        -:   32:* Function Name: STB_ADC_set
        -:   33:* Description  : This function assign adc value to be returned when M_ADC_CHsts_get() is called.
        -:   34:* Arguments    : ac - Value for ADC_AC
        -:   35:				 bat - Value for ADC_BAT
        -:   36:* Return Value : None
        -:   37:***********************************************************************************************************************/
        -:   38:
       19:   39:void STB_ADC_set(uint16_t ac, uint16_t bat)
        -:   40:{
       19:   41:	AC = ac;
       19:   42:	BAT = bat;
       19:   43:}
        -:   44:
        -:   45:/***********************************************************************************************************************
        -:   46:* Function Name: Get_status
        -:   47:* Description  : This function store the ac and battery status in address passed as function arguement.
        -:   48:* Arguments    : a - pointer to store the power and battery status
        -:   49:				 b - pointer to store the battery presence status
        -:   50:* Return Value : None
        -:   51:***********************************************************************************************************************/
        -:   52:
       19:   53:void Get_status(POW_MODE_T * a, POW_MODE_T *b)
        -:   54:{
       19:   55:	*a = POWER;
       19:   56:	*b = BATTERY;
       19:   57:}
        -:   58:
        -:   59:/***********************************************************************************************************************
        -:   60:* Function Name: M_ADC_CHsts_get
        -:   61:* Description  : This function store the adc buffer result.
        -:   62:* Arguments    : ch_no - Adc channel channel selection
        -:   63:				 *buffer - address to store the adc buffer result
        -:   64:* Return Value : ADC Status Or invalid parameter
        -:   65:***********************************************************************************************************************/
        -:   66:
       38:   67:uint8_t M_ADC_CHsts_get(uint8_t ch_no, uint16_t *buffer)
        -:   68:{
       38:   69:	if (ch_no == ADC_AC)
        -:   70:	{
       19:   71:		*buffer = AC;
        -:   72:	}
       19:   73:	else if (ch_no == ADC_BAT)
        -:   74:	{
       19:   75:		*buffer = BAT;
        -:   76:	}
       38:   77:	return ADC_STABLE;
        -:   78:}
        -:   79:
        -:   80:/***********************************************************************************************************************
        -:   81:* Function Name: NOTI_hdlr
        -:   82:* Description  : This function control the external peripherals based on the event passed as argument.
        -:   83:* Arguments    : event - any one value of enum E_SYS_EVENTS
        -:   84:				 status - event status
        -:   85:* Return Value : any one value of G_RESP_CODE
        -:   86:***********************************************************************************************************************/
        -:   87:
       34:   88:G_RESP_CODE NOTI_hdlr(E_SYS_EVENTS event, uint8_t status)
        -:   89:{	
       34:   90:	if (status != BAT_DISCONN && status != BAT_CONN)
        -:   91:	{
       19:   92:		POWER = (POW_MODE_T)status;
        -:   93:	}
        -:   94:	else
        -:   95:	{
       15:   96:		BATTERY = (POW_MODE_T)status;
        -:   97:	}
       34:   98:	return DEFAULT;
        -:   99:}
        -:  100:
        -:  101:/***********************************************************************************************************************
        -:  102:* Function Name: APP_eventManager
        -:  103:* Description  : This function notifies the current event to the app handler.
        -:  104:* Arguments    : event - any one value of enum E_SYS_EVENTS
        -:  105:				 sts - event status
        -:  106:* Return Value : None
        -:  107:***********************************************************************************************************************/
        -:  108:
       19:  109:void APP_eventManager(E_SYS_EVENTS event, uint8_t sts)
        -:  110:{
        -:  111:
       19:  112:}
        -:  113:
        -:  114:/***********************************************************************************************************************
        -:  115:End
        -:  116:***********************************************************************************************************************/
