        -:    0:Source:F:/sathya/ut_workspace/Jenkin_module/TST/stub.c
        -:    0:Graph:F:\sathya\ut_workspace\Jenkin_module\DBG\TST\gtst_M_mode_key_handler.gcno
        -:    0:Data:F:\sathya\ut_workspace\Jenkin_module\DBG\TST\gtst_M_mode_key_handler.gcda
        -:    0:Runs:1
        -:    0:Programs:1
        -:    1: 
        -:    2:/***********************************************************************************************************************
        -:    3:Includes
        -:    4:***********************************************************************************************************************/
        -:    5:#include "H_GPIO_driver.h"
        -:    6:#include "A_UI_handler.h"
        -:    7:#include "stub.h"
        -:    8:
        -:    9:
        -:   10:/***********************************************************************************************************************
        -:   11:Global variables and functions
        -:   12:***********************************************************************************************************************/
        -:   13:LED_NAME LED_name = LED_END;
        -:   14:G_CTL_CODES LED_level = NILL;
        -:   15:GPIO_LEVEL MKEY1_VAL = GPIO_HIGH, MKEY2_VAL = GPIO_HIGH;
        -:   16:SYSTEM_SETTINGS sys_data; 
        -:   17:
        -:   18:/***********************************************************************************************************************
        -:   19:* Function Name: m_u8LED_ctrl_led
        -:   20:* Description  : This function mocks the m_u8LED_ctrl_led().
        -:   21:* Arguments    : choice - name of the led
        -:   22:				 cmd - to control the led state
        -:   23:* Return Value : None
        -:   24:***********************************************************************************************************************/
       19:   25:void m_u8LED_ctrl_led(LED_NAME choice, G_CTL_CODES cmd)
        -:   26:{
       19:   27:	LED_name = choice;
       19:   28:	LED_level = cmd;
       19:   29:}
        -:   30:
        -:   31:/***********************************************************************************************************************
        -:   32:* Function Name: get_led_name
        -:   33:* Description  : This function returns the led info which will be used by the test case.
        -:   34:* Arguments    : None
        -:   35:* Return Value : one value of enum LED_NAME
        -:   36:***********************************************************************************************************************/
        -:   37:
        2:   38:LED_NAME get_led_name(void)
        -:   39:{
        2:   40:	LED_NAME ret = LED_name;
        2:   41:	return ret;
        -:   42:}
        -:   43:
        -:   44:/***********************************************************************************************************************
        -:   45:* Function Name: get_led_sts
        -:   46:* Description  : This function returns the led info which will be used by the test case.
        -:   47:* Arguments    : None
        -:   48:* Return Value : one value of enum G_CTL_CODES
        -:   49:***********************************************************************************************************************/
        -:   50:
        2:   51:G_CTL_CODES get_led_sts(void)
        -:   52:{
        2:   53:	G_CTL_CODES ret = LED_level;
        2:   54:	return ret;
        -:   55:}
        -:   56:
        -:   57:/***********************************************************************************************************************
        -:   58:* Function Name: LED_create
        -:   59:* Description  : This function mocks the LED_create().
        -:   60: 
        -:   61:***********************************************************************************************************************/
        -:   62:
       13:   63:void LED_create(void)
        -:   64:{
       13:   65:	LED_NAME gchoice = LED_END;
       13:   66:	G_CTL_CODES gcmd = NILL;
       13:   67:}
        -:   68:
        -:   69:/***********************************************************************************************************************
        -:   70:* Function Name: GPIO_input_set
        -:   71:* Description  : This function mocks the GPIO_input_set().
        -:   72: 
        -:   73:***********************************************************************************************************************/
        -:   74:
       58:   75:void GPIO_input_set(PIN_NAME_E pin_name, GPIO_LEVEL pin_level)
        -:   76:{
       58:   77:	switch (pin_name)
        -:   78:	{
       29:   79:	case PIN_NAME_MKEY1:
        -:   80:	{
       29:   81:		MKEY1_VAL = pin_level;
       29:   82:		break;
        -:   83:	}
       29:   84:	case PIN_NAME_MKEY2:
        -:   85:	{
       29:   86:		MKEY2_VAL = pin_level;
       29:   87:		break;
        -:   88:	}
    #####:   89:	default:
    #####:   90:		break;
        -:   91:	}
       58:   92:}
        -:   93:/***********************************************************************************************************************
        -:   94:* Function Name: GPIO_input_get
        -:   95:* Description  : This function mocks the GPIO_input_get().
        -:   96: 
        -:   97:***********************************************************************************************************************/
        -:   98:
       98:   99:GPIO_LEVEL GPIO_input_get(PIN_NAME_E pin_name)
        -:  100:{
        -:  101:	GPIO_LEVEL ret;
       98:  102:	switch (pin_name)
        -:  103:	{
       49:  104:	case PIN_NAME_MKEY1:
        -:  105:	{
       49:  106:		ret = MKEY1_VAL;
       49:  107:		break;
        -:  108:	}
       49:  109:	case PIN_NAME_MKEY2:
        -:  110:	{
       49:  111:		ret = MKEY2_VAL;
       49:  112:		break;
        -:  113:	}
    #####:  114:	default:
    #####:  115:		break;
        -:  116:	}
       98:  117:	return ret;
        -:  118:}
        -:  119:/***********************************************************************************************************************
        -:  120:* Function Name: E2P_LOG_STORE
        -:  121:* Description  : This function mocks the E2P_LOG_STORE().
        -:  122: 
        -:  123:***********************************************************************************************************************/
        -:  124:
       20:  125:G_RESP_CODE E2P_LOG_STORE(void)
        -:  126:{
       20:  127:	G_RESP_CODE ret = SUCCESS;
        -:  128:	
       20:  129:	return ret;
        -:  130:}
